%YAML 1.1
%TAG !u! tag:unity3d.com,2011:
--- !u!29 &1
OcclusionCullingSettings:
  m_ObjectHideFlags: 0
  serializedVersion: 2
  m_OcclusionBakeSettings:
    smallestOccluder: 5
    smallestHole: 0.25
    backfaceThreshold: 100
  m_SceneGUID: 00000000000000000000000000000000
  m_OcclusionCullingData: {fileID: 0}
--- !u!104 &2
RenderSettings:
  m_ObjectHideFlags: 0
  serializedVersion: 9
  m_Fog: 0
  m_FogColor: {r: 0.5, g: 0.5, b: 0.5, a: 1}
  m_FogMode: 3
  m_FogDensity: 0.01
  m_LinearFogStart: 0
  m_LinearFogEnd: 300
  m_AmbientSkyColor: {r: 0.212, g: 0.227, b: 0.259, a: 1}
  m_AmbientEquatorColor: {r: 0.114, g: 0.125, b: 0.133, a: 1}
  m_AmbientGroundColor: {r: 0.047, g: 0.043, b: 0.035, a: 1}
  m_AmbientIntensity: 1
  m_AmbientMode: 3
  m_SubtractiveShadowColor: {r: 0.42, g: 0.478, b: 0.627, a: 1}
  m_SkyboxMaterial: {fileID: 0}
  m_HaloStrength: 0.5
  m_FlareStrength: 1
  m_FlareFadeSpeed: 3
  m_HaloTexture: {fileID: 0}
  m_SpotCookie: {fileID: 10001, guid: 0000000000000000e000000000000000, type: 0}
  m_DefaultReflectionMode: 0
  m_DefaultReflectionResolution: 128
  m_ReflectionBounces: 1
  m_ReflectionIntensity: 1
  m_CustomReflection: {fileID: 0}
  m_Sun: {fileID: 0}
  m_IndirectSpecularColor: {r: 0, g: 0, b: 0, a: 1}
  m_UseRadianceAmbientProbe: 0
--- !u!157 &3
LightmapSettings:
  m_ObjectHideFlags: 0
  serializedVersion: 11
  m_GIWorkflowMode: 1
  m_GISettings:
    serializedVersion: 2
    m_BounceScale: 1
    m_IndirectOutputScale: 1
    m_AlbedoBoost: 1
    m_EnvironmentLightingMode: 0
    m_EnableBakedLightmaps: 0
    m_EnableRealtimeLightmaps: 0
  m_LightmapEditorSettings:
    serializedVersion: 12
    m_Resolution: 2
    m_BakeResolution: 40
    m_AtlasSize: 1024
    m_AO: 0
    m_AOMaxDistance: 1
    m_CompAOExponent: 1
    m_CompAOExponentDirect: 0
    m_ExtractAmbientOcclusion: 0
    m_Padding: 2
    m_LightmapParameters: {fileID: 0}
    m_LightmapsBakeMode: 1
    m_TextureCompression: 1
    m_FinalGather: 0
    m_FinalGatherFiltering: 1
    m_FinalGatherRayCount: 256
    m_ReflectionCompression: 2
    m_MixedBakeMode: 2
    m_BakeBackend: 0
    m_PVRSampling: 1
    m_PVRDirectSampleCount: 32
    m_PVRSampleCount: 500
    m_PVRBounces: 2
    m_PVREnvironmentSampleCount: 500
    m_PVREnvironmentReferencePointCount: 2048
    m_PVRFilteringMode: 2
    m_PVRDenoiserTypeDirect: 0
    m_PVRDenoiserTypeIndirect: 0
    m_PVRDenoiserTypeAO: 0
    m_PVRFilterTypeDirect: 0
    m_PVRFilterTypeIndirect: 0
    m_PVRFilterTypeAO: 0
    m_PVREnvironmentMIS: 0
    m_PVRCulling: 1
    m_PVRFilteringGaussRadiusDirect: 1
    m_PVRFilteringGaussRadiusIndirect: 5
    m_PVRFilteringGaussRadiusAO: 2
    m_PVRFilteringAtrousPositionSigmaDirect: 0.5
    m_PVRFilteringAtrousPositionSigmaIndirect: 2
    m_PVRFilteringAtrousPositionSigmaAO: 1
    m_ExportTrainingData: 0
    m_TrainingDataDestination: TrainingData
    m_LightProbeSampleCountMultiplier: 4
  m_LightingDataAsset: {fileID: 0}
  m_UseShadowmask: 1
--- !u!196 &4
NavMeshSettings:
  serializedVersion: 2
  m_ObjectHideFlags: 0
  m_BuildSettings:
    serializedVersion: 2
    agentTypeID: 0
    agentRadius: 0.5
    agentHeight: 2
    agentSlope: 45
    agentClimb: 0.4
    ledgeDropHeight: 0
    maxJumpAcrossDistance: 0
    minRegionArea: 2
    manualCellSize: 0
    cellSize: 0.16666667
    manualTileSize: 0
    tileSize: 256
    accuratePlacement: 0
    debug:
      m_Flags: 0
  m_NavMeshData: {fileID: 0}
--- !u!1 &55658256
GameObject:
  m_ObjectHideFlags: 0
  m_CorrespondingSourceObject: {fileID: 0}
  m_PrefabInstance: {fileID: 0}
  m_PrefabAsset: {fileID: 0}
  serializedVersion: 6
  m_Component:
  - component: {fileID: 55658259}
  - component: {fileID: 55658258}
  - component: {fileID: 55658257}
  m_Layer: 0
  m_Name: EventSystem
  m_TagString: Untagged
  m_Icon: {fileID: 0}
  m_NavMeshLayer: 0
  m_StaticEditorFlags: 0
  m_IsActive: 1
--- !u!114 &55658257
MonoBehaviour:
  m_ObjectHideFlags: 0
  m_CorrespondingSourceObject: {fileID: 0}
  m_PrefabInstance: {fileID: 0}
  m_PrefabAsset: {fileID: 0}
  m_GameObject: {fileID: 55658256}
  m_Enabled: 1
  m_EditorHideFlags: 0
  m_Script: {fileID: 11500000, guid: 4f231c4fb786f3946a6b90b886c48677, type: 3}
  m_Name: 
  m_EditorClassIdentifier: 
  m_HorizontalAxis: Horizontal
  m_VerticalAxis: Vertical
  m_SubmitButton: Submit
  m_CancelButton: Cancel
  m_InputActionsPerSecond: 10
  m_RepeatDelay: 0.5
  m_ForceModuleActive: 0
--- !u!114 &55658258
MonoBehaviour:
  m_ObjectHideFlags: 0
  m_CorrespondingSourceObject: {fileID: 0}
  m_PrefabInstance: {fileID: 0}
  m_PrefabAsset: {fileID: 0}
  m_GameObject: {fileID: 55658256}
  m_Enabled: 1
  m_EditorHideFlags: 0
  m_Script: {fileID: 11500000, guid: 76c392e42b5098c458856cdf6ecaaaa1, type: 3}
  m_Name: 
  m_EditorClassIdentifier: 
  m_FirstSelected: {fileID: 0}
  m_sendNavigationEvents: 1
  m_DragThreshold: 10
--- !u!4 &55658259
Transform:
  m_ObjectHideFlags: 0
  m_CorrespondingSourceObject: {fileID: 0}
  m_PrefabInstance: {fileID: 0}
  m_PrefabAsset: {fileID: 0}
  m_GameObject: {fileID: 55658256}
  m_LocalRotation: {x: 0, y: 0, z: 0, w: 1}
  m_LocalPosition: {x: 0, y: 0, z: 0}
  m_LocalScale: {x: 1, y: 1, z: 1}
  m_Children: []
  m_Father: {fileID: 0}
  m_RootOrder: 6
  m_LocalEulerAnglesHint: {x: 0, y: 0, z: 0}
--- !u!1 &519420028
GameObject:
  m_ObjectHideFlags: 0
  m_CorrespondingSourceObject: {fileID: 0}
  m_PrefabInstance: {fileID: 0}
  m_PrefabAsset: {fileID: 0}
  serializedVersion: 6
  m_Component:
  - component: {fileID: 519420032}
  - component: {fileID: 519420031}
  - component: {fileID: 519420029}
  m_Layer: 0
  m_Name: Main Camera
  m_TagString: MainCamera
  m_Icon: {fileID: 0}
  m_NavMeshLayer: 0
  m_StaticEditorFlags: 0
  m_IsActive: 1
--- !u!81 &519420029
AudioListener:
  m_ObjectHideFlags: 0
  m_CorrespondingSourceObject: {fileID: 0}
  m_PrefabInstance: {fileID: 0}
  m_PrefabAsset: {fileID: 0}
  m_GameObject: {fileID: 519420028}
  m_Enabled: 1
--- !u!20 &519420031
Camera:
  m_ObjectHideFlags: 0
  m_CorrespondingSourceObject: {fileID: 0}
  m_PrefabInstance: {fileID: 0}
  m_PrefabAsset: {fileID: 0}
  m_GameObject: {fileID: 519420028}
  m_Enabled: 1
  serializedVersion: 2
  m_ClearFlags: 2
  m_BackGroundColor: {r: 0, g: 0, b: 0, a: 0}
  m_projectionMatrixMode: 1
  m_GateFitMode: 2
  m_FOVAxisMode: 0
  m_SensorSize: {x: 36, y: 24}
  m_LensShift: {x: 0, y: 0}
  m_FocalLength: 50
  m_NormalizedViewPortRect:
    serializedVersion: 2
    x: 0
    y: 0
    width: 1
    height: 1
  near clip plane: 0.3
  far clip plane: 1000
  field of view: 60
  orthographic: 1
  orthographic size: 5
  m_Depth: -1
  m_CullingMask:
    serializedVersion: 2
    m_Bits: 4294967295
  m_RenderingPath: -1
  m_TargetTexture: {fileID: 0}
  m_TargetDisplay: 0
  m_TargetEye: 0
  m_HDR: 1
  m_AllowMSAA: 0
  m_AllowDynamicResolution: 0
  m_ForceIntoRT: 0
  m_OcclusionCulling: 0
  m_StereoConvergence: 10
  m_StereoSeparation: 0.022
--- !u!4 &519420032
Transform:
  m_ObjectHideFlags: 0
  m_CorrespondingSourceObject: {fileID: 0}
  m_PrefabInstance: {fileID: 0}
  m_PrefabAsset: {fileID: 0}
  m_GameObject: {fileID: 519420028}
  m_LocalRotation: {x: 0, y: 0, z: 0, w: 1}
  m_LocalPosition: {x: 0, y: 0, z: -10}
  m_LocalScale: {x: 1, y: 1, z: 1}
  m_Children: []
  m_Father: {fileID: 0}
  m_RootOrder: 1
  m_LocalEulerAnglesHint: {x: 0, y: 0, z: 0}
--- !u!1001 &791466234
PrefabInstance:
  m_ObjectHideFlags: 0
  serializedVersion: 2
  m_Modification:
    m_TransformParent: {fileID: 0}
    m_Modifications:
    - target: {fileID: 540713933, guid: c87ca648f0e751142b97d4d8ec752aee, type: 3}
      propertyPath: m_Size.y
      value: 1
      objectReference: {fileID: 0}
    - target: {fileID: 540713933, guid: c87ca648f0e751142b97d4d8ec752aee, type: 3}
      propertyPath: m_Size.x
      value: 18
      objectReference: {fileID: 0}
    - target: {fileID: 1405994886279431349, guid: c87ca648f0e751142b97d4d8ec752aee,
        type: 3}
      propertyPath: m_Size.x
      value: 18
      objectReference: {fileID: 0}
    - target: {fileID: 1405994886279431349, guid: c87ca648f0e751142b97d4d8ec752aee,
        type: 3}
      propertyPath: m_Size.y
      value: 1
      objectReference: {fileID: 0}
    - target: {fileID: 3154298576735425990, guid: c87ca648f0e751142b97d4d8ec752aee,
        type: 3}
      propertyPath: m_Name
      value: Wall (3)
      objectReference: {fileID: 0}
    - target: {fileID: 6786621667340892290, guid: c87ca648f0e751142b97d4d8ec752aee,
        type: 3}
      propertyPath: m_LocalPosition.x
      value: 0.03
      objectReference: {fileID: 0}
    - target: {fileID: 6786621667340892290, guid: c87ca648f0e751142b97d4d8ec752aee,
        type: 3}
      propertyPath: m_LocalPosition.y
      value: 5.47
      objectReference: {fileID: 0}
    - target: {fileID: 6786621667340892290, guid: c87ca648f0e751142b97d4d8ec752aee,
        type: 3}
      propertyPath: m_LocalPosition.z
      value: 0
      objectReference: {fileID: 0}
    - target: {fileID: 6786621667340892290, guid: c87ca648f0e751142b97d4d8ec752aee,
        type: 3}
      propertyPath: m_LocalRotation.x
      value: 0
      objectReference: {fileID: 0}
    - target: {fileID: 6786621667340892290, guid: c87ca648f0e751142b97d4d8ec752aee,
        type: 3}
      propertyPath: m_LocalRotation.y
      value: 0
      objectReference: {fileID: 0}
    - target: {fileID: 6786621667340892290, guid: c87ca648f0e751142b97d4d8ec752aee,
        type: 3}
      propertyPath: m_LocalRotation.z
      value: 0
      objectReference: {fileID: 0}
    - target: {fileID: 6786621667340892290, guid: c87ca648f0e751142b97d4d8ec752aee,
        type: 3}
      propertyPath: m_LocalRotation.w
      value: 1
      objectReference: {fileID: 0}
    - target: {fileID: 6786621667340892290, guid: c87ca648f0e751142b97d4d8ec752aee,
        type: 3}
      propertyPath: m_RootOrder
      value: 11
      objectReference: {fileID: 0}
    - target: {fileID: 6786621667340892290, guid: c87ca648f0e751142b97d4d8ec752aee,
        type: 3}
      propertyPath: m_LocalEulerAnglesHint.x
      value: 0
      objectReference: {fileID: 0}
    - target: {fileID: 6786621667340892290, guid: c87ca648f0e751142b97d4d8ec752aee,
        type: 3}
      propertyPath: m_LocalEulerAnglesHint.y
      value: 0
      objectReference: {fileID: 0}
    - target: {fileID: 6786621667340892290, guid: c87ca648f0e751142b97d4d8ec752aee,
        type: 3}
      propertyPath: m_LocalEulerAnglesHint.z
      value: 0
      objectReference: {fileID: 0}
    m_RemovedComponents: []
  m_SourcePrefab: {fileID: 100100000, guid: c87ca648f0e751142b97d4d8ec752aee, type: 3}
--- !u!1001 &906836465
PrefabInstance:
  m_ObjectHideFlags: 0
  serializedVersion: 2
  m_Modification:
    m_TransformParent: {fileID: 0}
    m_Modifications:
    - target: {fileID: 5870467777250547814, guid: 148fb5e0be83d46f78f85ea3bb8d982d,
        type: 3}
      propertyPath: m_LocalPosition.x
      value: 4.42
      objectReference: {fileID: 0}
    - target: {fileID: 5870467777356538623, guid: 148fb5e0be83d46f78f85ea3bb8d982d,
        type: 3}
      propertyPath: m_LocalPosition.x
      value: -4.17
      objectReference: {fileID: 0}
    - target: {fileID: 5870467777356538623, guid: 148fb5e0be83d46f78f85ea3bb8d982d,
        type: 3}
      propertyPath: m_LocalPosition.y
      value: -0
      objectReference: {fileID: 0}
    - target: {fileID: 5870467777362125610, guid: 148fb5e0be83d46f78f85ea3bb8d982d,
        type: 3}
      propertyPath: m_LocalPosition.x
      value: -13.91
      objectReference: {fileID: 0}
    - target: {fileID: 5870467777362125610, guid: 148fb5e0be83d46f78f85ea3bb8d982d,
        type: 3}
      propertyPath: m_LocalPosition.y
      value: -0.28
      objectReference: {fileID: 0}
    - target: {fileID: 5870467777362125610, guid: 148fb5e0be83d46f78f85ea3bb8d982d,
        type: 3}
      propertyPath: m_LocalPosition.z
      value: 0
      objectReference: {fileID: 0}
    - target: {fileID: 5870467777362125610, guid: 148fb5e0be83d46f78f85ea3bb8d982d,
        type: 3}
      propertyPath: m_LocalRotation.x
      value: 0
      objectReference: {fileID: 0}
    - target: {fileID: 5870467777362125610, guid: 148fb5e0be83d46f78f85ea3bb8d982d,
        type: 3}
      propertyPath: m_LocalRotation.y
      value: 0
      objectReference: {fileID: 0}
    - target: {fileID: 5870467777362125610, guid: 148fb5e0be83d46f78f85ea3bb8d982d,
        type: 3}
      propertyPath: m_LocalRotation.z
      value: 0.7071068
      objectReference: {fileID: 0}
    - target: {fileID: 5870467777362125610, guid: 148fb5e0be83d46f78f85ea3bb8d982d,
        type: 3}
      propertyPath: m_LocalRotation.w
      value: 0.7071068
      objectReference: {fileID: 0}
    - target: {fileID: 5870467777362125610, guid: 148fb5e0be83d46f78f85ea3bb8d982d,
        type: 3}
      propertyPath: m_RootOrder
      value: 7
      objectReference: {fileID: 0}
    - target: {fileID: 5870467777362125610, guid: 148fb5e0be83d46f78f85ea3bb8d982d,
        type: 3}
      propertyPath: m_LocalEulerAnglesHint.x
      value: 0
      objectReference: {fileID: 0}
    - target: {fileID: 5870467777362125610, guid: 148fb5e0be83d46f78f85ea3bb8d982d,
        type: 3}
      propertyPath: m_LocalEulerAnglesHint.y
      value: 0
      objectReference: {fileID: 0}
    - target: {fileID: 5870467777362125610, guid: 148fb5e0be83d46f78f85ea3bb8d982d,
        type: 3}
      propertyPath: m_LocalEulerAnglesHint.z
      value: 90
      objectReference: {fileID: 0}
    - target: {fileID: 5870467777362125611, guid: 148fb5e0be83d46f78f85ea3bb8d982d,
        type: 3}
      propertyPath: isVertical
      value: 1
      objectReference: {fileID: 0}
    - target: {fileID: 5870467777362125611, guid: 148fb5e0be83d46f78f85ea3bb8d982d,
        type: 3}
      propertyPath: startSpawning
      value: 4
      objectReference: {fileID: 0}
    - target: {fileID: 5870467777362125611, guid: 148fb5e0be83d46f78f85ea3bb8d982d,
        type: 3}
      propertyPath: timeToIncreaseDifficult
      value: 120
      objectReference: {fileID: 0}
    - target: {fileID: 5870467777362125611, guid: 148fb5e0be83d46f78f85ea3bb8d982d,
        type: 3}
      propertyPath: SpawnRatio
      value: 4
      objectReference: {fileID: 0}
    - target: {fileID: 5870467777362125653, guid: 148fb5e0be83d46f78f85ea3bb8d982d,
        type: 3}
      propertyPath: m_Name
      value: ObjectSpawer (1)
      objectReference: {fileID: 0}
    m_RemovedComponents: []
  m_SourcePrefab: {fileID: 100100000, guid: 148fb5e0be83d46f78f85ea3bb8d982d, type: 3}
--- !u!1001 &1109690143
PrefabInstance:
  m_ObjectHideFlags: 0
  serializedVersion: 2
  m_Modification:
    m_TransformParent: {fileID: 0}
    m_Modifications:
    - target: {fileID: 3154298576735425990, guid: c87ca648f0e751142b97d4d8ec752aee,
        type: 3}
      propertyPath: m_Name
      value: Wall (1)
      objectReference: {fileID: 0}
    - target: {fileID: 6786621667340892290, guid: c87ca648f0e751142b97d4d8ec752aee,
        type: 3}
      propertyPath: m_LocalPosition.x
      value: -9
      objectReference: {fileID: 0}
    - target: {fileID: 6786621667340892290, guid: c87ca648f0e751142b97d4d8ec752aee,
        type: 3}
      propertyPath: m_LocalPosition.y
      value: 0
      objectReference: {fileID: 0}
    - target: {fileID: 6786621667340892290, guid: c87ca648f0e751142b97d4d8ec752aee,
        type: 3}
      propertyPath: m_LocalPosition.z
      value: 0
      objectReference: {fileID: 0}
    - target: {fileID: 6786621667340892290, guid: c87ca648f0e751142b97d4d8ec752aee,
        type: 3}
      propertyPath: m_LocalRotation.x
      value: 0
      objectReference: {fileID: 0}
    - target: {fileID: 6786621667340892290, guid: c87ca648f0e751142b97d4d8ec752aee,
        type: 3}
      propertyPath: m_LocalRotation.y
      value: 0
      objectReference: {fileID: 0}
    - target: {fileID: 6786621667340892290, guid: c87ca648f0e751142b97d4d8ec752aee,
        type: 3}
      propertyPath: m_LocalRotation.z
      value: 0
      objectReference: {fileID: 0}
    - target: {fileID: 6786621667340892290, guid: c87ca648f0e751142b97d4d8ec752aee,
        type: 3}
      propertyPath: m_LocalRotation.w
      value: 1
      objectReference: {fileID: 0}
    - target: {fileID: 6786621667340892290, guid: c87ca648f0e751142b97d4d8ec752aee,
        type: 3}
      propertyPath: m_RootOrder
      value: 5
      objectReference: {fileID: 0}
    - target: {fileID: 6786621667340892290, guid: c87ca648f0e751142b97d4d8ec752aee,
        type: 3}
      propertyPath: m_LocalEulerAnglesHint.x
      value: 0
      objectReference: {fileID: 0}
    - target: {fileID: 6786621667340892290, guid: c87ca648f0e751142b97d4d8ec752aee,
        type: 3}
      propertyPath: m_LocalEulerAnglesHint.y
      value: 0
      objectReference: {fileID: 0}
    - target: {fileID: 6786621667340892290, guid: c87ca648f0e751142b97d4d8ec752aee,
        type: 3}
      propertyPath: m_LocalEulerAnglesHint.z
      value: 0
      objectReference: {fileID: 0}
    m_RemovedComponents: []
  m_SourcePrefab: {fileID: 100100000, guid: c87ca648f0e751142b97d4d8ec752aee, type: 3}
--- !u!1 &1159477428 stripped
GameObject:
  m_CorrespondingSourceObject: {fileID: 473435890806336035, guid: 14608fde75fb99046aa7241819152475,
    type: 3}
  m_PrefabInstance: {fileID: 8272239511317498308}
  m_PrefabAsset: {fileID: 0}
--- !u!114 &1159477430 stripped
MonoBehaviour:
  m_CorrespondingSourceObject: {fileID: 3198876995743598327, guid: 14608fde75fb99046aa7241819152475,
    type: 3}
  m_PrefabInstance: {fileID: 8272239511317498308}
  m_PrefabAsset: {fileID: 0}
  m_GameObject: {fileID: 1159477428}
  m_Enabled: 1
  m_EditorHideFlags: 0
  m_Script: {fileID: 11500000, guid: 5f7201a12d95ffc409449d95f23cf332, type: 3}
  m_Name: 
  m_EditorClassIdentifier: 
--- !u!1001 &1286069119
PrefabInstance:
  m_ObjectHideFlags: 0
  serializedVersion: 2
  m_Modification:
    m_TransformParent: {fileID: 0}
    m_Modifications:
    - target: {fileID: 5870467777362125610, guid: 148fb5e0be83d46f78f85ea3bb8d982d,
        type: 3}
      propertyPath: m_LocalPosition.x
      value: -0.32
      objectReference: {fileID: 0}
    - target: {fileID: 5870467777362125610, guid: 148fb5e0be83d46f78f85ea3bb8d982d,
        type: 3}
      propertyPath: m_LocalPosition.y
      value: -8.32
      objectReference: {fileID: 0}
    - target: {fileID: 5870467777362125610, guid: 148fb5e0be83d46f78f85ea3bb8d982d,
        type: 3}
      propertyPath: m_LocalPosition.z
      value: 0
      objectReference: {fileID: 0}
    - target: {fileID: 5870467777362125610, guid: 148fb5e0be83d46f78f85ea3bb8d982d,
        type: 3}
      propertyPath: m_LocalRotation.x
      value: 0
      objectReference: {fileID: 0}
    - target: {fileID: 5870467777362125610, guid: 148fb5e0be83d46f78f85ea3bb8d982d,
        type: 3}
      propertyPath: m_LocalRotation.y
      value: 0
      objectReference: {fileID: 0}
    - target: {fileID: 5870467777362125610, guid: 148fb5e0be83d46f78f85ea3bb8d982d,
        type: 3}
      propertyPath: m_LocalRotation.z
      value: 1
      objectReference: {fileID: 0}
    - target: {fileID: 5870467777362125610, guid: 148fb5e0be83d46f78f85ea3bb8d982d,
        type: 3}
      propertyPath: m_LocalRotation.w
      value: 0
      objectReference: {fileID: 0}
    - target: {fileID: 5870467777362125610, guid: 148fb5e0be83d46f78f85ea3bb8d982d,
        type: 3}
      propertyPath: m_RootOrder
      value: 8
      objectReference: {fileID: 0}
    - target: {fileID: 5870467777362125610, guid: 148fb5e0be83d46f78f85ea3bb8d982d,
        type: 3}
      propertyPath: m_LocalEulerAnglesHint.x
      value: 0
      objectReference: {fileID: 0}
    - target: {fileID: 5870467777362125610, guid: 148fb5e0be83d46f78f85ea3bb8d982d,
        type: 3}
      propertyPath: m_LocalEulerAnglesHint.y
      value: 0
      objectReference: {fileID: 0}
    - target: {fileID: 5870467777362125610, guid: 148fb5e0be83d46f78f85ea3bb8d982d,
        type: 3}
      propertyPath: m_LocalEulerAnglesHint.z
      value: 180
      objectReference: {fileID: 0}
    - target: {fileID: 5870467777362125611, guid: 148fb5e0be83d46f78f85ea3bb8d982d,
        type: 3}
      propertyPath: timeToIncreaseDifficult
      value: 120
      objectReference: {fileID: 0}
    - target: {fileID: 5870467777362125611, guid: 148fb5e0be83d46f78f85ea3bb8d982d,
        type: 3}
      propertyPath: startSpawning
      value: 2
      objectReference: {fileID: 0}
    - target: {fileID: 5870467777362125611, guid: 148fb5e0be83d46f78f85ea3bb8d982d,
        type: 3}
      propertyPath: SpawnRatio
      value: 4
      objectReference: {fileID: 0}
    - target: {fileID: 5870467777362125653, guid: 148fb5e0be83d46f78f85ea3bb8d982d,
        type: 3}
      propertyPath: m_Name
      value: ObjectSpawer (2)
      objectReference: {fileID: 0}
    m_RemovedComponents: []
  m_SourcePrefab: {fileID: 100100000, guid: 148fb5e0be83d46f78f85ea3bb8d982d, type: 3}
--- !u!1 &1329234531 stripped
GameObject:
  m_CorrespondingSourceObject: {fileID: 8745545271693994700, guid: 14608fde75fb99046aa7241819152475,
    type: 3}
  m_PrefabInstance: {fileID: 8272239511317498308}
  m_PrefabAsset: {fileID: 0}
--- !u!4 &1412308344 stripped
Transform:
  m_CorrespondingSourceObject: {fileID: 4540945423241583516, guid: 1bc481b4145a842a5b8a40541b703a16,
    type: 3}
  m_PrefabInstance: {fileID: 4540945424117008100}
  m_PrefabAsset: {fileID: 0}
--- !u!1001 &1424055476
PrefabInstance:
  m_ObjectHideFlags: 0
  serializedVersion: 2
  m_Modification:
    m_TransformParent: {fileID: 0}
    m_Modifications:
    - target: {fileID: 540713933, guid: c87ca648f0e751142b97d4d8ec752aee, type: 3}
      propertyPath: m_Size.y
      value: 1
      objectReference: {fileID: 0}
    - target: {fileID: 540713933, guid: c87ca648f0e751142b97d4d8ec752aee, type: 3}
      propertyPath: m_Size.x
      value: 18
      objectReference: {fileID: 0}
    - target: {fileID: 1405994886279431349, guid: c87ca648f0e751142b97d4d8ec752aee,
        type: 3}
      propertyPath: m_Size.x
      value: 18
      objectReference: {fileID: 0}
    - target: {fileID: 1405994886279431349, guid: c87ca648f0e751142b97d4d8ec752aee,
        type: 3}
      propertyPath: m_Size.y
      value: 1
      objectReference: {fileID: 0}
    - target: {fileID: 3154298576735425990, guid: c87ca648f0e751142b97d4d8ec752aee,
        type: 3}
      propertyPath: m_Name
      value: Wall (2)
      objectReference: {fileID: 0}
    - target: {fileID: 6786621667340892290, guid: c87ca648f0e751142b97d4d8ec752aee,
        type: 3}
      propertyPath: m_LocalPosition.x
      value: 0.03
      objectReference: {fileID: 0}
    - target: {fileID: 6786621667340892290, guid: c87ca648f0e751142b97d4d8ec752aee,
        type: 3}
      propertyPath: m_LocalPosition.y
      value: -4.82
      objectReference: {fileID: 0}
    - target: {fileID: 6786621667340892290, guid: c87ca648f0e751142b97d4d8ec752aee,
        type: 3}
      propertyPath: m_LocalPosition.z
      value: 0
      objectReference: {fileID: 0}
    - target: {fileID: 6786621667340892290, guid: c87ca648f0e751142b97d4d8ec752aee,
        type: 3}
      propertyPath: m_LocalRotation.x
      value: 0
      objectReference: {fileID: 0}
    - target: {fileID: 6786621667340892290, guid: c87ca648f0e751142b97d4d8ec752aee,
        type: 3}
      propertyPath: m_LocalRotation.y
      value: 0
      objectReference: {fileID: 0}
    - target: {fileID: 6786621667340892290, guid: c87ca648f0e751142b97d4d8ec752aee,
        type: 3}
      propertyPath: m_LocalRotation.z
      value: 0
      objectReference: {fileID: 0}
    - target: {fileID: 6786621667340892290, guid: c87ca648f0e751142b97d4d8ec752aee,
        type: 3}
      propertyPath: m_LocalRotation.w
      value: 1
      objectReference: {fileID: 0}
    - target: {fileID: 6786621667340892290, guid: c87ca648f0e751142b97d4d8ec752aee,
        type: 3}
      propertyPath: m_RootOrder
      value: 10
      objectReference: {fileID: 0}
    - target: {fileID: 6786621667340892290, guid: c87ca648f0e751142b97d4d8ec752aee,
        type: 3}
      propertyPath: m_LocalEulerAnglesHint.x
      value: 0
      objectReference: {fileID: 0}
    - target: {fileID: 6786621667340892290, guid: c87ca648f0e751142b97d4d8ec752aee,
        type: 3}
      propertyPath: m_LocalEulerAnglesHint.y
      value: 0
      objectReference: {fileID: 0}
    - target: {fileID: 6786621667340892290, guid: c87ca648f0e751142b97d4d8ec752aee,
        type: 3}
      propertyPath: m_LocalEulerAnglesHint.z
      value: 0
      objectReference: {fileID: 0}
    m_RemovedComponents: []
  m_SourcePrefab: {fileID: 100100000, guid: c87ca648f0e751142b97d4d8ec752aee, type: 3}
--- !u!1001 &1893196184
PrefabInstance:
  m_ObjectHideFlags: 0
  serializedVersion: 2
  m_Modification:
    m_TransformParent: {fileID: 0}
    m_Modifications:
    - target: {fileID: 5870467777250547814, guid: 148fb5e0be83d46f78f85ea3bb8d982d,
        type: 3}
      propertyPath: m_LocalPosition.x
      value: 4.42
      objectReference: {fileID: 0}
    - target: {fileID: 5870467777356538623, guid: 148fb5e0be83d46f78f85ea3bb8d982d,
        type: 3}
      propertyPath: m_LocalPosition.x
      value: -4.17
      objectReference: {fileID: 0}
    - target: {fileID: 5870467777356538623, guid: 148fb5e0be83d46f78f85ea3bb8d982d,
        type: 3}
      propertyPath: m_LocalPosition.y
      value: -0
      objectReference: {fileID: 0}
    - target: {fileID: 5870467777362125610, guid: 148fb5e0be83d46f78f85ea3bb8d982d,
        type: 3}
      propertyPath: m_LocalPosition.x
      value: 13.86
      objectReference: {fileID: 0}
    - target: {fileID: 5870467777362125610, guid: 148fb5e0be83d46f78f85ea3bb8d982d,
        type: 3}
      propertyPath: m_LocalPosition.y
      value: -0.28
      objectReference: {fileID: 0}
    - target: {fileID: 5870467777362125610, guid: 148fb5e0be83d46f78f85ea3bb8d982d,
        type: 3}
      propertyPath: m_LocalPosition.z
      value: 0
      objectReference: {fileID: 0}
    - target: {fileID: 5870467777362125610, guid: 148fb5e0be83d46f78f85ea3bb8d982d,
        type: 3}
      propertyPath: m_LocalRotation.x
      value: 0
      objectReference: {fileID: 0}
    - target: {fileID: 5870467777362125610, guid: 148fb5e0be83d46f78f85ea3bb8d982d,
        type: 3}
      propertyPath: m_LocalRotation.y
      value: 0
      objectReference: {fileID: 0}
    - target: {fileID: 5870467777362125610, guid: 148fb5e0be83d46f78f85ea3bb8d982d,
        type: 3}
      propertyPath: m_LocalRotation.z
      value: -0.7071068
      objectReference: {fileID: 0}
    - target: {fileID: 5870467777362125610, guid: 148fb5e0be83d46f78f85ea3bb8d982d,
        type: 3}
      propertyPath: m_LocalRotation.w
      value: 0.7071068
      objectReference: {fileID: 0}
    - target: {fileID: 5870467777362125610, guid: 148fb5e0be83d46f78f85ea3bb8d982d,
        type: 3}
      propertyPath: m_RootOrder
      value: 9
      objectReference: {fileID: 0}
    - target: {fileID: 5870467777362125610, guid: 148fb5e0be83d46f78f85ea3bb8d982d,
        type: 3}
      propertyPath: m_LocalEulerAnglesHint.x
      value: 0
      objectReference: {fileID: 0}
    - target: {fileID: 5870467777362125610, guid: 148fb5e0be83d46f78f85ea3bb8d982d,
        type: 3}
      propertyPath: m_LocalEulerAnglesHint.y
      value: 0
      objectReference: {fileID: 0}
    - target: {fileID: 5870467777362125610, guid: 148fb5e0be83d46f78f85ea3bb8d982d,
        type: 3}
      propertyPath: m_LocalEulerAnglesHint.z
      value: -90
      objectReference: {fileID: 0}
    - target: {fileID: 5870467777362125611, guid: 148fb5e0be83d46f78f85ea3bb8d982d,
        type: 3}
      propertyPath: isVertical
      value: 1
      objectReference: {fileID: 0}
    - target: {fileID: 5870467777362125611, guid: 148fb5e0be83d46f78f85ea3bb8d982d,
        type: 3}
      propertyPath: timeToIncreaseDifficult
      value: 60
      objectReference: {fileID: 0}
    - target: {fileID: 5870467777362125611, guid: 148fb5e0be83d46f78f85ea3bb8d982d,
        type: 3}
      propertyPath: SpawnRatio
      value: 4
      objectReference: {fileID: 0}
    - target: {fileID: 5870467777362125653, guid: 148fb5e0be83d46f78f85ea3bb8d982d,
        type: 3}
      propertyPath: m_Name
      value: ObjectSpawer (3)
      objectReference: {fileID: 0}
    m_RemovedComponents: []
  m_SourcePrefab: {fileID: 100100000, guid: 148fb5e0be83d46f78f85ea3bb8d982d, type: 3}
--- !u!114 &2146874349 stripped
MonoBehaviour:
  m_CorrespondingSourceObject: {fileID: 8653255808311534762, guid: 14608fde75fb99046aa7241819152475,
    type: 3}
  m_PrefabInstance: {fileID: 8272239511317498308}
  m_PrefabAsset: {fileID: 0}
  m_GameObject: {fileID: 0}
  m_Enabled: 1
  m_EditorHideFlags: 0
  m_Script: {fileID: 11500000, guid: 5f7201a12d95ffc409449d95f23cf332, type: 3}
  m_Name: 
  m_EditorClassIdentifier: 
--- !u!1001 &959480774046030814
PrefabInstance:
  m_ObjectHideFlags: 0
  serializedVersion: 2
  m_Modification:
    m_TransformParent: {fileID: 0}
    m_Modifications:
    - target: {fileID: 3154298576735425990, guid: c87ca648f0e751142b97d4d8ec752aee,
        type: 3}
      propertyPath: m_Name
      value: Wall
      objectReference: {fileID: 0}
    - target: {fileID: 6786621667340892290, guid: c87ca648f0e751142b97d4d8ec752aee,
        type: 3}
      propertyPath: m_LocalPosition.x
      value: 9
      objectReference: {fileID: 0}
    - target: {fileID: 6786621667340892290, guid: c87ca648f0e751142b97d4d8ec752aee,
        type: 3}
      propertyPath: m_LocalPosition.y
      value: 0
      objectReference: {fileID: 0}
    - target: {fileID: 6786621667340892290, guid: c87ca648f0e751142b97d4d8ec752aee,
        type: 3}
      propertyPath: m_LocalPosition.z
      value: 0
      objectReference: {fileID: 0}
    - target: {fileID: 6786621667340892290, guid: c87ca648f0e751142b97d4d8ec752aee,
        type: 3}
      propertyPath: m_LocalRotation.x
      value: 0
      objectReference: {fileID: 0}
    - target: {fileID: 6786621667340892290, guid: c87ca648f0e751142b97d4d8ec752aee,
        type: 3}
      propertyPath: m_LocalRotation.y
      value: 0
      objectReference: {fileID: 0}
    - target: {fileID: 6786621667340892290, guid: c87ca648f0e751142b97d4d8ec752aee,
        type: 3}
      propertyPath: m_LocalRotation.z
      value: 0
      objectReference: {fileID: 0}
    - target: {fileID: 6786621667340892290, guid: c87ca648f0e751142b97d4d8ec752aee,
        type: 3}
      propertyPath: m_LocalRotation.w
      value: 1
      objectReference: {fileID: 0}
    - target: {fileID: 6786621667340892290, guid: c87ca648f0e751142b97d4d8ec752aee,
        type: 3}
      propertyPath: m_RootOrder
      value: 4
      objectReference: {fileID: 0}
    - target: {fileID: 6786621667340892290, guid: c87ca648f0e751142b97d4d8ec752aee,
        type: 3}
      propertyPath: m_LocalEulerAnglesHint.x
      value: 0
      objectReference: {fileID: 0}
    - target: {fileID: 6786621667340892290, guid: c87ca648f0e751142b97d4d8ec752aee,
        type: 3}
      propertyPath: m_LocalEulerAnglesHint.y
      value: 0
      objectReference: {fileID: 0}
    - target: {fileID: 6786621667340892290, guid: c87ca648f0e751142b97d4d8ec752aee,
        type: 3}
      propertyPath: m_LocalEulerAnglesHint.z
      value: 0
      objectReference: {fileID: 0}
    m_RemovedComponents: []
  m_SourcePrefab: {fileID: 100100000, guid: c87ca648f0e751142b97d4d8ec752aee, type: 3}
--- !u!1001 &3950370207093957041
PrefabInstance:
  m_ObjectHideFlags: 0
  serializedVersion: 2
  m_Modification:
    m_TransformParent: {fileID: 0}
    m_Modifications:
    - target: {fileID: 3950370205927657028, guid: 596d84dbe671a44c3a5a6e3bd0d525f4,
        type: 3}
      propertyPath: m_Name
      value: PickUpSpawner
      objectReference: {fileID: 0}
    - target: {fileID: 3950370205927657030, guid: 596d84dbe671a44c3a5a6e3bd0d525f4,
        type: 3}
      propertyPath: fuelObj
      value: 
      objectReference: {fileID: 1022640325166507861, guid: 1789af3b81db245fe8ebcfe4966ce3bc,
        type: 3}
    - target: {fileID: 3950370205927657031, guid: 596d84dbe671a44c3a5a6e3bd0d525f4,
        type: 3}
      propertyPath: m_LocalPosition.x
      value: 0
      objectReference: {fileID: 0}
    - target: {fileID: 3950370205927657031, guid: 596d84dbe671a44c3a5a6e3bd0d525f4,
        type: 3}
      propertyPath: m_LocalPosition.y
      value: 0
      objectReference: {fileID: 0}
    - target: {fileID: 3950370205927657031, guid: 596d84dbe671a44c3a5a6e3bd0d525f4,
        type: 3}
      propertyPath: m_LocalPosition.z
      value: 0
      objectReference: {fileID: 0}
    - target: {fileID: 3950370205927657031, guid: 596d84dbe671a44c3a5a6e3bd0d525f4,
        type: 3}
      propertyPath: m_LocalRotation.x
      value: 0
      objectReference: {fileID: 0}
    - target: {fileID: 3950370205927657031, guid: 596d84dbe671a44c3a5a6e3bd0d525f4,
        type: 3}
      propertyPath: m_LocalRotation.y
      value: 0
      objectReference: {fileID: 0}
    - target: {fileID: 3950370205927657031, guid: 596d84dbe671a44c3a5a6e3bd0d525f4,
        type: 3}
      propertyPath: m_LocalRotation.z
      value: 0
      objectReference: {fileID: 0}
    - target: {fileID: 3950370205927657031, guid: 596d84dbe671a44c3a5a6e3bd0d525f4,
        type: 3}
      propertyPath: m_LocalRotation.w
      value: 1
      objectReference: {fileID: 0}
    - target: {fileID: 3950370205927657031, guid: 596d84dbe671a44c3a5a6e3bd0d525f4,
        type: 3}
      propertyPath: m_RootOrder
      value: 13
      objectReference: {fileID: 0}
    - target: {fileID: 3950370205927657031, guid: 596d84dbe671a44c3a5a6e3bd0d525f4,
        type: 3}
      propertyPath: m_LocalEulerAnglesHint.x
      value: 0
      objectReference: {fileID: 0}
    - target: {fileID: 3950370205927657031, guid: 596d84dbe671a44c3a5a6e3bd0d525f4,
        type: 3}
      propertyPath: m_LocalEulerAnglesHint.y
      value: 0
      objectReference: {fileID: 0}
    - target: {fileID: 3950370205927657031, guid: 596d84dbe671a44c3a5a6e3bd0d525f4,
        type: 3}
      propertyPath: m_LocalEulerAnglesHint.z
      value: 0
      objectReference: {fileID: 0}
    m_RemovedComponents: []
  m_SourcePrefab: {fileID: 100100000, guid: 596d84dbe671a44c3a5a6e3bd0d525f4, type: 3}
--- !u!1001 &4540945424117008100
PrefabInstance:
  m_ObjectHideFlags: 0
  serializedVersion: 2
  m_Modification:
    m_TransformParent: {fileID: 0}
    m_Modifications:
    - target: {fileID: 4540945423241583507, guid: 1bc481b4145a842a5b8a40541b703a16,
        type: 3}
      propertyPath: m_Name
      value: PlayerInitialPosition
      objectReference: {fileID: 0}
    - target: {fileID: 4540945423241583516, guid: 1bc481b4145a842a5b8a40541b703a16,
        type: 3}
      propertyPath: m_LocalPosition.x
      value: 0
      objectReference: {fileID: 0}
    - target: {fileID: 4540945423241583516, guid: 1bc481b4145a842a5b8a40541b703a16,
        type: 3}
      propertyPath: m_LocalPosition.y
      value: -3.14
      objectReference: {fileID: 0}
    - target: {fileID: 4540945423241583516, guid: 1bc481b4145a842a5b8a40541b703a16,
        type: 3}
      propertyPath: m_LocalPosition.z
      value: 0
      objectReference: {fileID: 0}
    - target: {fileID: 4540945423241583516, guid: 1bc481b4145a842a5b8a40541b703a16,
        type: 3}
      propertyPath: m_LocalRotation.x
      value: 0
      objectReference: {fileID: 0}
    - target: {fileID: 4540945423241583516, guid: 1bc481b4145a842a5b8a40541b703a16,
        type: 3}
      propertyPath: m_LocalRotation.y
      value: 0
      objectReference: {fileID: 0}
    - target: {fileID: 4540945423241583516, guid: 1bc481b4145a842a5b8a40541b703a16,
        type: 3}
      propertyPath: m_LocalRotation.z
      value: 0
      objectReference: {fileID: 0}
    - target: {fileID: 4540945423241583516, guid: 1bc481b4145a842a5b8a40541b703a16,
        type: 3}
      propertyPath: m_LocalRotation.w
      value: 1
      objectReference: {fileID: 0}
    - target: {fileID: 4540945423241583516, guid: 1bc481b4145a842a5b8a40541b703a16,
        type: 3}
      propertyPath: m_RootOrder
      value: 12
      objectReference: {fileID: 0}
    - target: {fileID: 4540945423241583516, guid: 1bc481b4145a842a5b8a40541b703a16,
        type: 3}
      propertyPath: m_LocalEulerAnglesHint.x
      value: 0
      objectReference: {fileID: 0}
    - target: {fileID: 4540945423241583516, guid: 1bc481b4145a842a5b8a40541b703a16,
        type: 3}
      propertyPath: m_LocalEulerAnglesHint.y
      value: 0
      objectReference: {fileID: 0}
    - target: {fileID: 4540945423241583516, guid: 1bc481b4145a842a5b8a40541b703a16,
        type: 3}
      propertyPath: m_LocalEulerAnglesHint.z
      value: 0
      objectReference: {fileID: 0}
    m_RemovedComponents: []
  m_SourcePrefab: {fileID: 100100000, guid: 1bc481b4145a842a5b8a40541b703a16, type: 3}
--- !u!1001 &5870467777406976106
PrefabInstance:
  m_ObjectHideFlags: 0
  serializedVersion: 2
  m_Modification:
    m_TransformParent: {fileID: 0}
    m_Modifications:
    - target: {fileID: 5870467777362125610, guid: 148fb5e0be83d46f78f85ea3bb8d982d,
        type: 3}
      propertyPath: m_LocalPosition.x
      value: -0.32
      objectReference: {fileID: 0}
    - target: {fileID: 5870467777362125610, guid: 148fb5e0be83d46f78f85ea3bb8d982d,
        type: 3}
      propertyPath: m_LocalPosition.y
      value: 7.17
      objectReference: {fileID: 0}
    - target: {fileID: 5870467777362125610, guid: 148fb5e0be83d46f78f85ea3bb8d982d,
        type: 3}
      propertyPath: m_LocalPosition.z
      value: 0
      objectReference: {fileID: 0}
    - target: {fileID: 5870467777362125610, guid: 148fb5e0be83d46f78f85ea3bb8d982d,
        type: 3}
      propertyPath: m_LocalRotation.x
      value: 0
      objectReference: {fileID: 0}
    - target: {fileID: 5870467777362125610, guid: 148fb5e0be83d46f78f85ea3bb8d982d,
        type: 3}
      propertyPath: m_LocalRotation.y
      value: 0
      objectReference: {fileID: 0}
    - target: {fileID: 5870467777362125610, guid: 148fb5e0be83d46f78f85ea3bb8d982d,
        type: 3}
      propertyPath: m_LocalRotation.z
      value: 0
      objectReference: {fileID: 0}
    - target: {fileID: 5870467777362125610, guid: 148fb5e0be83d46f78f85ea3bb8d982d,
        type: 3}
      propertyPath: m_LocalRotation.w
      value: 1
      objectReference: {fileID: 0}
    - target: {fileID: 5870467777362125610, guid: 148fb5e0be83d46f78f85ea3bb8d982d,
        type: 3}
      propertyPath: m_RootOrder
      value: 3
      objectReference: {fileID: 0}
    - target: {fileID: 5870467777362125610, guid: 148fb5e0be83d46f78f85ea3bb8d982d,
        type: 3}
      propertyPath: m_LocalEulerAnglesHint.x
      value: 0
      objectReference: {fileID: 0}
    - target: {fileID: 5870467777362125610, guid: 148fb5e0be83d46f78f85ea3bb8d982d,
        type: 3}
      propertyPath: m_LocalEulerAnglesHint.y
      value: 0
      objectReference: {fileID: 0}
    - target: {fileID: 5870467777362125610, guid: 148fb5e0be83d46f78f85ea3bb8d982d,
        type: 3}
      propertyPath: m_LocalEulerAnglesHint.z
      value: 0
      objectReference: {fileID: 0}
    - target: {fileID: 5870467777362125611, guid: 148fb5e0be83d46f78f85ea3bb8d982d,
        type: 3}
      propertyPath: timeToIncreaseDifficult
      value: 120
      objectReference: {fileID: 0}
    - target: {fileID: 5870467777362125611, guid: 148fb5e0be83d46f78f85ea3bb8d982d,
        type: 3}
      propertyPath: SpawnRatio
      value: 4
      objectReference: {fileID: 0}
    - target: {fileID: 5870467777362125653, guid: 148fb5e0be83d46f78f85ea3bb8d982d,
        type: 3}
      propertyPath: m_Name
      value: ObjectSpawer
      objectReference: {fileID: 0}
    m_RemovedComponents: []
  m_SourcePrefab: {fileID: 100100000, guid: 148fb5e0be83d46f78f85ea3bb8d982d, type: 3}
--- !u!1001 &8272239511317498308
PrefabInstance:
  m_ObjectHideFlags: 0
  serializedVersion: 2
  m_Modification:
    m_TransformParent: {fileID: 0}
    m_Modifications:
    - target: {fileID: 719909016, guid: 14608fde75fb99046aa7241819152475, type: 3}
      propertyPath: m_IsActive
      value: 0
      objectReference: {fileID: 0}
    - target: {fileID: 719909017, guid: 14608fde75fb99046aa7241819152475, type: 3}
      propertyPath: m_AnchoredPosition.y
      value: -112.600006
      objectReference: {fileID: 0}
    - target: {fileID: 719909018, guid: 14608fde75fb99046aa7241819152475, type: 3}
      propertyPath: burntFuel
      value: 10
      objectReference: {fileID: 0}
    - target: {fileID: 1082143301, guid: 14608fde75fb99046aa7241819152475, type: 3}
      propertyPath: m_AnchorMax.x
      value: 1
      objectReference: {fileID: 0}
    - target: {fileID: 1082143301, guid: 14608fde75fb99046aa7241819152475, type: 3}
      propertyPath: m_AnchorMax.y
      value: 1
      objectReference: {fileID: 0}
    - target: {fileID: 473435890806336035, guid: 14608fde75fb99046aa7241819152475,
        type: 3}
      propertyPath: m_IsActive
      value: 0
      objectReference: {fileID: 0}
    - target: {fileID: 673724804197205095, guid: 14608fde75fb99046aa7241819152475,
        type: 3}
      propertyPath: m_Name
      value: Canvas
      objectReference: {fileID: 0}
    - target: {fileID: 4150525153585131276, guid: 14608fde75fb99046aa7241819152475,
        type: 3}
      propertyPath: lifeText
      value: 
      objectReference: {fileID: 1159477428}
    - target: {fileID: 4784419800089358072, guid: 14608fde75fb99046aa7241819152475,
        type: 3}
      propertyPath: m_AnchoredPosition.y
      value: -66
      objectReference: {fileID: 0}
    - target: {fileID: 4784419800089358072, guid: 14608fde75fb99046aa7241819152475,
        type: 3}
      propertyPath: m_AnchoredPosition.x
      value: 25
      objectReference: {fileID: 0}
    - target: {fileID: 5236786676992440374, guid: 14608fde75fb99046aa7241819152475,
        type: 3}
      propertyPath: m_Camera
      value: 
      objectReference: {fileID: 519420031}
    - target: {fileID: 5976512140553670465, guid: 14608fde75fb99046aa7241819152475,
        type: 3}
      propertyPath: m_LocalPosition.x
      value: 0
      objectReference: {fileID: 0}
    - target: {fileID: 5976512140553670465, guid: 14608fde75fb99046aa7241819152475,
        type: 3}
      propertyPath: m_LocalPosition.y
      value: 0
      objectReference: {fileID: 0}
    - target: {fileID: 5976512140553670465, guid: 14608fde75fb99046aa7241819152475,
        type: 3}
      propertyPath: m_LocalPosition.z
      value: 0
      objectReference: {fileID: 0}
    - target: {fileID: 5976512140553670465, guid: 14608fde75fb99046aa7241819152475,
        type: 3}
      propertyPath: m_LocalRotation.x
      value: 0
      objectReference: {fileID: 0}
    - target: {fileID: 5976512140553670465, guid: 14608fde75fb99046aa7241819152475,
        type: 3}
      propertyPath: m_LocalRotation.y
      value: 0
      objectReference: {fileID: 0}
    - target: {fileID: 5976512140553670465, guid: 14608fde75fb99046aa7241819152475,
        type: 3}
      propertyPath: m_LocalRotation.z
      value: 0
      objectReference: {fileID: 0}
    - target: {fileID: 5976512140553670465, guid: 14608fde75fb99046aa7241819152475,
        type: 3}
      propertyPath: m_LocalRotation.w
      value: 1
      objectReference: {fileID: 0}
    - target: {fileID: 5976512140553670465, guid: 14608fde75fb99046aa7241819152475,
        type: 3}
      propertyPath: m_RootOrder
      value: 0
      objectReference: {fileID: 0}
    - target: {fileID: 5976512140553670465, guid: 14608fde75fb99046aa7241819152475,
        type: 3}
      propertyPath: m_LocalEulerAnglesHint.x
      value: 0
      objectReference: {fileID: 0}
    - target: {fileID: 5976512140553670465, guid: 14608fde75fb99046aa7241819152475,
        type: 3}
      propertyPath: m_LocalEulerAnglesHint.y
      value: 0
      objectReference: {fileID: 0}
    - target: {fileID: 5976512140553670465, guid: 14608fde75fb99046aa7241819152475,
        type: 3}
      propertyPath: m_LocalEulerAnglesHint.z
      value: 0
      objectReference: {fileID: 0}
    - target: {fileID: 5976512140553670465, guid: 14608fde75fb99046aa7241819152475,
        type: 3}
      propertyPath: m_AnchoredPosition.x
      value: 0
      objectReference: {fileID: 0}
    - target: {fileID: 5976512140553670465, guid: 14608fde75fb99046aa7241819152475,
        type: 3}
      propertyPath: m_AnchoredPosition.y
      value: 0
      objectReference: {fileID: 0}
    - target: {fileID: 5976512140553670465, guid: 14608fde75fb99046aa7241819152475,
        type: 3}
      propertyPath: m_SizeDelta.x
      value: 0
      objectReference: {fileID: 0}
    - target: {fileID: 5976512140553670465, guid: 14608fde75fb99046aa7241819152475,
        type: 3}
      propertyPath: m_SizeDelta.y
      value: 0
      objectReference: {fileID: 0}
    - target: {fileID: 5976512140553670465, guid: 14608fde75fb99046aa7241819152475,
        type: 3}
      propertyPath: m_AnchorMin.x
      value: 0
      objectReference: {fileID: 0}
    - target: {fileID: 5976512140553670465, guid: 14608fde75fb99046aa7241819152475,
        type: 3}
      propertyPath: m_AnchorMin.y
      value: 0
      objectReference: {fileID: 0}
    - target: {fileID: 5976512140553670465, guid: 14608fde75fb99046aa7241819152475,
        type: 3}
      propertyPath: m_AnchorMax.x
      value: 0
      objectReference: {fileID: 0}
    - target: {fileID: 5976512140553670465, guid: 14608fde75fb99046aa7241819152475,
        type: 3}
      propertyPath: m_AnchorMax.y
      value: 0
      objectReference: {fileID: 0}
    - target: {fileID: 5976512140553670465, guid: 14608fde75fb99046aa7241819152475,
        type: 3}
      propertyPath: m_Pivot.x
      value: 0
      objectReference: {fileID: 0}
    - target: {fileID: 5976512140553670465, guid: 14608fde75fb99046aa7241819152475,
        type: 3}
      propertyPath: m_Pivot.y
      value: 0
      objectReference: {fileID: 0}
    - target: {fileID: 6832191617046609226, guid: 14608fde75fb99046aa7241819152475,
        type: 3}
      propertyPath: m_AnchoredPosition.y
      value: -19.799988
      objectReference: {fileID: 0}
    - target: {fileID: 7547136494100079439, guid: 14608fde75fb99046aa7241819152475,
        type: 3}
      propertyPath: m_IsActive
      value: 0
      objectReference: {fileID: 0}
    m_RemovedComponents: []
  m_SourcePrefab: {fileID: 100100000, guid: 14608fde75fb99046aa7241819152475, type: 3}
--- !u!1001 &8283303019785553665
PrefabInstance:
  m_ObjectHideFlags: 0
  serializedVersion: 2
  m_Modification:
    m_TransformParent: {fileID: 0}
    m_Modifications:
    - target: {fileID: 8283303019162227231, guid: 9de9012a151924ed1b05e913f735cf07,
        type: 3}
      propertyPath: m_Name
      value: PlayerShip
      objectReference: {fileID: 0}
    - target: {fileID: 8283303019162227233, guid: 9de9012a151924ed1b05e913f735cf07,
        type: 3}
      propertyPath: score
      value: 
      objectReference: {fileID: 2146874349}
    - target: {fileID: 8283303019162227233, guid: 9de9012a151924ed1b05e913f735cf07,
        type: 3}
      propertyPath: initialPosition
      value: 
      objectReference: {fileID: 1412308344}
    - target: {fileID: 8283303019162227233, guid: 9de9012a151924ed1b05e913f735cf07,
        type: 3}
      propertyPath: deathMenu
      value: 
      objectReference: {fileID: 1329234531}
    - target: {fileID: 8283303019162227233, guid: 9de9012a151924ed1b05e913f735cf07,
        type: 3}
      propertyPath: lives
      value: 
      objectReference: {fileID: 1159477430}
    - target: {fileID: 8283303019162227235, guid: 9de9012a151924ed1b05e913f735cf07,
        type: 3}
      propertyPath: m_LocalPosition.x
      value: 0
      objectReference: {fileID: 0}
    - target: {fileID: 8283303019162227235, guid: 9de9012a151924ed1b05e913f735cf07,
        type: 3}
      propertyPath: m_LocalPosition.y
      value: -3.5
      objectReference: {fileID: 0}
    - target: {fileID: 8283303019162227235, guid: 9de9012a151924ed1b05e913f735cf07,
        type: 3}
      propertyPath: m_LocalPosition.z
      value: 0
      objectReference: {fileID: 0}
    - target: {fileID: 8283303019162227235, guid: 9de9012a151924ed1b05e913f735cf07,
        type: 3}
      propertyPath: m_LocalRotation.x
      value: 0
      objectReference: {fileID: 0}
    - target: {fileID: 8283303019162227235, guid: 9de9012a151924ed1b05e913f735cf07,
        type: 3}
      propertyPath: m_LocalRotation.y
      value: 0
      objectReference: {fileID: 0}
    - target: {fileID: 8283303019162227235, guid: 9de9012a151924ed1b05e913f735cf07,
        type: 3}
      propertyPath: m_LocalRotation.z
      value: 0.7071068
      objectReference: {fileID: 0}
    - target: {fileID: 8283303019162227235, guid: 9de9012a151924ed1b05e913f735cf07,
        type: 3}
      propertyPath: m_LocalRotation.w
      value: 0.7071068
      objectReference: {fileID: 0}
    - target: {fileID: 8283303019162227235, guid: 9de9012a151924ed1b05e913f735cf07,
        type: 3}
      propertyPath: m_RootOrder
      value: 2
      objectReference: {fileID: 0}
    - target: {fileID: 8283303019162227235, guid: 9de9012a151924ed1b05e913f735cf07,
        type: 3}
      propertyPath: m_LocalEulerAnglesHint.x
      value: 0
      objectReference: {fileID: 0}
    - target: {fileID: 8283303019162227235, guid: 9de9012a151924ed1b05e913f735cf07,
        type: 3}
      propertyPath: m_LocalEulerAnglesHint.y
      value: 0
      objectReference: {fileID: 0}
    - target: {fileID: 8283303019162227235, guid: 9de9012a151924ed1b05e913f735cf07,
        type: 3}
      propertyPath: m_LocalEulerAnglesHint.z
      value: 90
      objectReference: {fileID: 0}
    m_RemovedComponents: []
  m_SourcePrefab: {fileID: 100100000, guid: 9de9012a151924ed1b05e913f735cf07, type: 3}
